bash only should be used.....

===========================

NAMES=(prasad reddy Ravi)
for name in "${NAMES[*]}"
do
  echo $name
done



===========================


a=0
while [ $a -lt 10 ]
do
  echo "$a "
  a=`expr $a + 1`
done

==============================

=========================


https://zoom.us/j/7262618477


MARKS[0]=60
MARKS[1]=80
MARKS[2]=90
MARKS[3]=76
MARKS[5]=56
echo ${MARKS[2]}
echo ${MARKS[*]}


=========================================


for (( i=1; i <= 5; i++ ))
do
 echo "Random number $i: $RANDOM"
done

===============================

read -a NAMES
for name in "${NAMES[*]}"
do
  echo $name
done


=============================================





